…
Summarizing the data by *member_type* and *season*:

Checking the *mean_ride_length*, *max_ride_length* and
*mode_day_of_week* by each month for each user type:

``` r
df %>% group_by(month, member_type) %>% 
  drop_na() %>% 
  summarize(mean_ride_length = as_hms(mean(ride_length)), 
            max_ride_length = as_hms(max(ride_length)), 
            mode_day_of_week = getMode(day_of_week)
            )
```

    ## # A tibble: 24 × 5
    ## # Groups:   month [12]
    ##    month member_type mean_ride_length max_ride_length mode_day_of_week
    ##    <dbl> <chr>       <time>           <time>          <ord>           
    ##  1     1 casual      30'22.647300"    487:51:06       Saturday        
    ##  2     1 member      11'58.890592"     24:59:57       Thursday        
    ##  3     2 casual      26'42.507051"    181:45:58       Monday          
    ##  4     2 member      11'24.331766"     24:59:56       Monday          
    ##  5     3 casual      32'37.343428"    572:34:04       Sunday          
    ##  6     3 member      11'57.499732"     25:59:54       Wednesday       
    ##  7     4 casual      29'31.945624"    352:02:12       Saturday        
    ##  8     4 member      11'29.544247"     24:59:58       Tuesday         
    ##  9     5 casual      38'13.857973"    898:41:36       Saturday        
    ## 10     5 member      14'38.334552"     24:59:56       Saturday        
    ## # … with 14 more rows
…
